Z A
A A
G+ W-
g Ha
W+ H-
Z Z
A Ha
G0 A
Z Ha
W- H+
G0 Z
G0 g
Z g
W+ W-
G- W+
G+ mu- nu_mu~
d d~ Hh
A d d~
W- mu+ nu_mu
G- e+ nu_e
Z nu_e nu_e~
d H+ u~
c H- s~
Z Z Hh
c~ H+ s
Hh mu+ mu-
Hl nu_mu nu_mu~
G- mu+ nu_mu
c c~ Hl
Z u u~
A nu_e nu_e~
c c~ Hh
H- mu+ nu_mu
Z e+ e-
A A Hh
W+ mu- nu_mu~
A e+ e-
G+ c~ s
Hh s s~
A A Hl
W- d~ u
Z d d~
e+ H- nu_e
Hh u u~
Hl s s~
d~ H- u
Z g Hl
A s s~
W+ e- nu_e~
Hl u u~
A g Hl
W+ W- Hh
e+ e- Hl
g g Hl
W+ W- Hl
W+ c~ s
e+ e- Hh
Z Z Hl
Z s s~
A mu+ mu-
Z A Hl
H+ mu- nu_mu~
Z A Hh
Z mu+ mu-
A c c~
Hl nu_e nu_e~
W- e+ nu_e
G- d~ u
A u u~
G- c s~
e- H+ nu_e~
G+ d u~
Hl mu+ mu-
G+ e- nu_e~
Z c c~
W- c s~
d d~ Hl
W+ d u~
W+ Hl mu- nu_mu~
A Hl mu+ mu-
A e+ e- Hl
Z Hl mu+ mu-
A d d~ Hl
W+ d Hl u~
W+ e- Hl nu_e~
W- Hl mu+ nu_mu
Z e+ e- Hl
d d~ g Hl
Z Hl u u~
g Hl s s~
g Hl u u~
W- c Hl s~
Z Hl nu_e nu_e~
W- e+ Hl nu_e
A Hl u u~
A Hl nu_e nu_e~
Z c c~ Hl
W+ c~ Hl s
A c c~ Hl
A Hl s s~
c c~ g Hl
Z d d~ Hl
W- d~ Hl u
Z Hl s s~
