G+ mu- nu_mu~
G+ c~ s
Hl s s~
G- e+ nu_e
Z Z Hl
Z nu_e nu_e~
G- mu+ nu_mu
c c~ Hl
Z u u~
Z e+ e-
W+ mu- nu_mu~
W- mu+ nu_mu
A A Hl
W- d~ u
Z d d~
Z g Hl
Hl nu_mu nu_mu~
W+ e- nu_e~
Hl u u~
A g Hl
g g Hl
W+ W- Hl
W+ c~ s
Z s s~
Z A Hl
e+ e- Hl
Z mu+ mu-
Hl nu_e nu_e~
W- e+ nu_e
G- d~ u
G- c s~
G+ d u~
Hl mu+ mu-
G+ e- nu_e~
Z c c~
W- c s~
d d~ Hl
W+ d u~
