b b~
c c~
d d~
g g
s s~
t t~
u u~
A b b~
A c c~
A d d~
A s s~
A t t~
A u u~
G+ b t~
G+ c~ d
G+ c~ s
G+ d u~
G+ s u~
G- b~ t
G- c d~
G- c s~
G- d~ u
G- s~ u
G0 b b~
G0 c c~
G0 d d~
G0 d s~
G0 d~ s
G0 s s~
G0 t t~
G0 u u~
H b b~
H c c~
H d d~
H d s~
H d~ s
H g g
H s s~
H t t~
H u u~
W+ b t~
W+ c~ d
W+ c~ s
W+ d u~
W+ s u~
W- b~ t
W- c d~
W- c s~
W- d~ u
W- s~ u
Wp+ b c~
Wp+ b t~
Wp+ b u~
Wp+ c~ d
Wp+ c~ s
Wp+ d t~
Wp+ d u~
Wp+ s t~
Wp+ s u~
Wp- b~ c
Wp- b~ t
Wp- b~ u
Wp- c d~
Wp- c s~
Wp- d~ t
Wp- d~ u
Wp- s~ t
Wp- s~ u
Z b b~
Z c c~
Z d d~
Z s s~
Z t t~
Z u u~
b b~ g
b d~ g
b g s~
b~ d g
b~ g s
c c~ g
c g t~
c g u~
c~ g t
c~ g u
d d~ g
d g s~
d~ g s
g g g
g s s~
g t t~
g t u~
g t~ u
g u u~
