A A
A Z
G+ G-
G+ H-
G- H+
G0 G0
G0 Ha
H+ H-
Ha Ha
Hh Hh
Hh Hl
Hl Hl
W+ W-
Z Z
b b~
c c~
d d~
e+ e-
g g
mu+ mu-
nu_e nu_e~
nu_mu nu_mu~
nu_tau nu_tau~
s s~
t t~
tau+ tau-
u u~
A A Hh
A A Hl
A G+ G-
A G+ H-
A G+ W-
A G- H+
A G- W+
A G0 Hh
A G0 Hl
A H+ H-
A H+ W-
A H- W+
A Ha Hh
A Ha Hl
A Hh Z
A Hl Z
A W+ W-
A b b~
A c c~
A d d~
A e+ e-
A mu+ mu-
A nu_e nu_e~
A nu_mu nu_mu~
A nu_tau nu_tau~
A s s~
A t t~
A tau+ tau-
A u u~
G+ G- Hh
G+ G- Hl
G+ G- Z
G+ G0 H-
G+ G0 W-
G+ H- Ha
G+ H- Hh
G+ H- Hl
G+ H- Z
G+ Ha W-
G+ Hh W-
G+ Hl W-
G+ W- Z
G+ b t~
G+ c~ s
G+ d u~
G+ e- nu_e~
G+ mu- nu_mu~
G+ nu_tau~ tau-
G- G0 H+
G- G0 W+
G- H+ Ha
G- H+ Hh
G- H+ Hl
G- H+ Z
G- Ha W+
G- Hh W+
G- Hl W+
G- W+ Z
G- b~ t
G- c s~
G- d~ u
G- e+ nu_e
G- mu+ nu_mu
G- nu_tau tau+
G0 G0 Ha
G0 G0 Hh
G0 G0 Hl
G0 H+ W-
G0 H- W+
G0 Ha Hh
G0 Ha Hl
G0 Hh Z
G0 Hl Z
G0 b b~
G0 c c~
G0 d d~
G0 e+ e-
G0 mu+ mu-
G0 s s~
G0 t t~
G0 tau+ tau-
G0 u u~
H+ H- Hh
H+ H- Hl
H+ H- Z
H+ Ha W-
H+ Hh W-
H+ Hl W-
H+ W- Z
H+ b t~
H+ c~ s
H+ d u~
H+ e- nu_e~
H+ mu- nu_mu~
H+ nu_tau~ tau-
H- Ha W+
H- Hh W+
H- Hl W+
H- W+ Z
H- b~ t
H- c s~
H- d~ u
H- e+ nu_e
H- mu+ nu_mu
H- nu_tau tau+
Ha Ha Hh
Ha Ha Hl
Ha Hh Z
Ha Hl Z
Ha b b~
Ha c c~
Ha d d~
Ha e+ e-
Ha mu+ mu-
Ha s s~
Ha t t~
Ha tau+ tau-
Ha u u~
Hh Hh Hh
Hh Hh Hl
Hh Hl Hl
Hh W+ W-
Hh Z Z
Hh b b~
Hh c c~
Hh d d~
Hh e+ e-
Hh g g
Hh mu+ mu-
Hh s s~
Hh t t~
Hh tau+ tau-
Hh u u~
Hl Hl Hl
Hl W+ W-
Hl Z Z
Hl b b~
Hl c c~
Hl d d~
Hl e+ e-
Hl g g
Hl mu+ mu-
Hl s s~
Hl t t~
Hl tau+ tau-
Hl u u~
W+ W- Z
W+ b t~
W+ c~ s
W+ d u~
W+ e- nu_e~
W+ mu- nu_mu~
W+ nu_tau~ tau-
W- b~ t
W- c s~
W- d~ u
W- e+ nu_e
W- mu+ nu_mu
W- nu_tau tau+
Z b b~
Z c c~
Z d d~
Z e+ e-
Z mu+ mu-
Z nu_e nu_e~
Z nu_mu nu_mu~
Z nu_tau nu_tau~
Z s s~
Z t t~
Z tau+ tau-
Z u u~
b b~ g
c c~ g
d d~ g
g g g
g s s~
g t t~
g u u~
A A A A
A A A Z
A A G+ G-
A A G+ H-
A A G- H+
A A G0 G0
A A G0 Ha
A A H+ H-
A A Ha Ha
A A Hh Hh
A A Hh Hl
A A Hl Hl
A A W+ W-
A A Z Z
A A g g
A G+ G- Z
A G+ G0 W-
A G+ H- Z
A G+ Ha W-
A G+ Hh W-
A G+ Hl W-
A G- G0 W+
A G- H+ Z
A G- Ha W+
A G- Hh W+
A G- Hl W+
A G0 G0 Z
A G0 H+ W-
A G0 H- W+
A G0 Ha Z
A H+ H- Z
A H+ Ha W-
A H+ Hh W-
A H+ Hl W-
A H- Ha W+
A H- Hh W+
A H- Hl W+
A Ha Ha Z
A Hh Hh Z
A Hh Hl Z
A Hl Hl Z
A W+ W- Z
A Z Z Z
A Z g g
A g g g
G+ G+ G- G-
G+ G+ G- H-
G+ G+ H- H-
G+ G+ W- W-
G+ G- G- H+
G+ G- G0 G0
G+ G- G0 Ha
G+ G- H+ H-
G+ G- Ha Ha
G+ G- Hh Hh
G+ G- Hh Hl
G+ G- Hl Hl
G+ G- W+ W-
G+ G- Z Z
G+ G- g g
G+ G0 G0 H-
G+ G0 H- Ha
G+ G0 H- Hh
G+ G0 H- Hl
G+ G0 W- Z
G+ H+ H- H-
G+ H- Ha Ha
G+ H- Ha Hh
G+ H- Ha Hl
G+ H- Hh Hh
G+ H- Hh Hl
G+ H- Hl Hl
G+ H- W+ W-
G+ H- Z Z
G+ H- g g
G+ Ha W- Z
G+ Hh W- Z
G+ Hl W- Z
G- G- H+ H+
G- G- W+ W+
G- G0 G0 H+
G- G0 H+ Ha
G- G0 H+ Hh
G- G0 H+ Hl
G- G0 W+ Z
G- H+ H+ H-
G- H+ Ha Ha
G- H+ Ha Hh
G- H+ Ha Hl
G- H+ Hh Hh
G- H+ Hh Hl
G- H+ Hl Hl
G- H+ W+ W-
G- H+ Z Z
G- H+ g g
G- Ha W+ Z
G- Hh W+ Z
G- Hl W+ Z
G0 G0 G0 G0
G0 G0 G0 Ha
G0 G0 H+ H-
G0 G0 Ha Ha
G0 G0 Ha Hh
G0 G0 Ha Hl
G0 G0 Hh Hh
G0 G0 Hh Hl
G0 G0 Hl Hl
G0 G0 W+ W-
G0 G0 Z Z
G0 G0 g g
G0 H+ H- Ha
G0 H+ W- Z
G0 H- W+ Z
G0 Ha Ha Ha
G0 Ha Hh Hh
G0 Ha Hh Hl
G0 Ha Hl Hl
G0 Ha W+ W-
G0 Ha Z Z
G0 Ha g g
H+ H+ H- H-
H+ H+ W- W-
H+ H- Ha Ha
H+ H- Hh Hh
H+ H- Hh Hl
H+ H- Hl Hl
H+ H- W+ W-
H+ H- Z Z
H+ H- g g
H+ Ha W- Z
H+ Hh W- Z
H+ Hl W- Z
H- H- W+ W+
H- Ha W+ Z
H- Hh W+ Z
H- Hl W+ Z
Ha Ha Ha Ha
Ha Ha Hh Hh
Ha Ha Hh Hl
Ha Ha Hl Hl
Ha Ha W+ W-
Ha Ha Z Z
Ha Ha g g
Ha Hh Hh Hh
Ha Hl Hl Hl
Hh Hh Hh Hh
Hh Hh Hh Hl
Hh Hh Hl Hl
Hh Hh W+ W-
Hh Hh Z Z
Hh Hh g g
Hh Hl Hl Hl
Hh Hl W+ W-
Hh Hl Z Z
Hh Hl g g
Hl Hl Hl Hl
Hl Hl W+ W-
Hl Hl Z Z
Hl Hl g g
W+ W+ W- W-
W+ W- Z Z
W+ W- g g
Z Z Z Z
Z Z g g
Z g g g
g g g g
