A A
A Z
Z Z
W+ W-
g g
H H
G0 G0
G+ G-
nu_e nu_e~
nu_mu nu_mu~
nu_tau nu_tau~
e- e+
mu- mu+
tau- tau+
u u~
c c~
t t~
d d~
s s~
b b~
A A H
A Z H
A W+ W-
A W+ G-
A W- G+
A G+ G-
A nu_e nu_e~
A nu_mu nu_mu~
A nu_tau nu_tau~
A e- e+
A mu- mu+
A tau- tau+
A u u~
A c c~
A t t~
A d d~
A s s~
A b b~
Z Z H
Z W+ W-
Z W+ G-
Z W- G+
Z H G0
Z G+ G-
Z nu_e nu_e~
Z nu_mu nu_mu~
Z nu_tau nu_tau~
Z e- e+
Z mu- mu+
Z tau- tau+
Z u u~
Z c c~
Z t t~
Z d d~
Z s s~
Z b b~
W+ W- H
W+ H G-
W+ G0 G-
W+ nu_e~ e-
W+ nu_mu~ mu-
W+ nu_tau~ tau-
W- H G+
W- G0 G+
W- nu_e e+
W- nu_mu mu+
W- nu_tau tau+
g g g
g g H
g u u~
g c c~
g t t~
g d d~
g s s~
g b b~
H H H
H G0 G0
H G+ G-
H tau- tau+
H t t~
H b b~
G0 tau- tau+
G0 t t~
G0 b b~
G+ nu_tau~ tau-
G- nu_tau tau+
W- u d~
W+ u~ d
W- c s~
W+ c~ s
W- t b~
G- t b~
W+ t~ b
G+ t~ b
A A A A
A A A Z
A A Z Z
A A W+ W-
A A g g
A A H H
A A G0 G0
A A G+ G-
A Z Z Z
A Z W+ W-
A Z g g
A Z H H
A Z G0 G0
A Z G+ G-
A W+ H G-
A W+ G0 G-
A W- H G+
A W- G0 G+
A g g g
Z Z Z Z
Z Z W+ W-
Z Z g g
Z Z H H
Z Z G0 G0
Z Z G+ G-
Z W+ H G-
Z W+ G0 G-
Z W- H G+
Z W- G0 G+
Z g g g
W+ W+ W- W-
W+ W- g g
W+ W- H H
W+ W- G0 G0
W+ W- G+ G-
g g g g
g g H H
g g G0 G0
g g G+ G-
H H H H
H H G0 G0
H H G+ G-
G0 G0 G0 G0
G0 G0 G+ G-
G+ G+ G- G-
