A A
t t~
u u~
G0 Z
G0 g
nu_mu nu_mu~
A g
W+ W-
G- W+
Z A
H A
g g
G+ W-
e+ e-
G+ G-
d d~
H Z
G0 A
Z Z
H H
Z g
b b~
H g
mu+ mu-
nu_e nu_e~
d d~ g
G- b~ t
H u u~
H Z Z
W- mu+ nu_mu
A d d~
G+ W- g
G0 b b~
W+ b t~
H e+ e-
Z nu_e nu_e~
G- mu+ nu_mu
G+ b t~
Z u u~
A nu_e nu_e~
H g g
W+ W- Z
G+ W- A
A t t~
W+ W- g
H Z g
g t t~
W+ mu- nu_mu~
H nu_e nu_e~
H mu+ mu-
A e+ e-
G+ W- Z
W+ W- A
W- d~ u
Z g g
Z A g
H b b~
G- W+ A
H nu_mu nu_mu~
H A A
W+ e- nu_e~
A A g
G+ mu- nu_mu~
g u u~
A g g
H Z A
W- b~ t
b b~ g
Z Z A
G- e+ nu_e
Z e+ e-
A mu+ mu-
Z t t~
G- W+ Z
Z Z g
Z mu+ mu-
Z b b~
Z nu_mu nu_mu~
W- e+ nu_e
G- d~ u
A u u~
G- W+ g
A nu_mu nu_mu~
H W+ W-
G+ d u~
H A g
Z Z Z
A b b~
A A A
G+ e- nu_e~
Z A A
Z d d~
W+ d u~
A A nu_e nu_e~
W+ A mu- nu_mu~
b e+ t~ nu_e
Z Z nu_e nu_e~
W- A d~ u
A A u u~
Z A mu+ mu-
W+ Z d u~
W- A e+ nu_e
Z A u u~
W- d~ g u
W+ Z mu- nu_mu~
H b b~ g
G+ Z mu- nu_mu~
W+ W- A g
b b~ d d~
G+ A e- nu_e~
e+ mu- nu_e nu_mu~
b mu+ t~ nu_mu
Z A e+ e-
A A nu_mu nu_mu~
W+ A d u~
W+ A e- nu_e~
W+ b g t~
A g u u~
W+ W- Z Z
G- W+ u u~
b b~ u u~
G- A mu+ nu_mu
H W- mu+ nu_mu
Z Z b b~
Z b b~ g
G+ W- b b~
W+ A b t~
W+ W- Z g
mu+ mu- u u~
b~ mu- t nu_mu~
Z A nu_e nu_e~
W+ W- b b~
H Z b b~
W- Z e+ nu_e
G- Z e+ nu_e
H W+ mu- nu_mu~
G+ W- u u~
Z Z e+ e-
H A b b~
Z A b b~
G- A e+ nu_e
Z g u u~
G+ Z e- nu_e~
Z A nu_mu nu_mu~
u u~ nu_mu nu_mu~
b b~ e+ e-
Z Z u u~
d~ mu- u nu_mu~
W- A b~ t
Z Z nu_mu nu_mu~
b~ e- t nu_e~
H Z u u~
W+ d g u~
W- b~ g t
W+ W- A A
d e+ u~ nu_e
W+ W- u u~
G- W+ b b~
H W- e+ nu_e
Z Z mu+ mu-
H W+ e- nu_e~
A A e+ e-
W+ Z e- nu_e~
A A mu+ mu-
H A u u~
A A b b~
b~ d t u~
b b~ mu+ mu-
W+ W- Z A
W+ Z b t~
b b~ nu_mu nu_mu~
G- Z mu+ nu_mu
W+ W- g g
W- Z b~ t
e+ e- u u~
W- Z mu+ nu_mu
G+ A mu- nu_mu~
b d~ t~ u
H g u u~
d mu+ u~ nu_mu
W- Z d~ u
A b b~ g
e- mu+ nu_e~ nu_mu
d~ e- u nu_e~
b b~ nu_e nu_e~
W- A mu+ nu_mu
t t~ u u~
u u~ nu_e nu_e~
