b b~
c c~
d d~
g g
s s~
u u~
A b b~
A c c~
A d d~
A s s~
A u u~
G+ c~ s
G+ d u~
G- c s~
G- d~ u
G0 b b~
G0 c c~
G0 d d~
G0 s s~
G0 u u~
H b b~
H c c~
H d d~
H g g
H s s~
H u u~
W+ c~ s
W+ d u~
W- c s~
W- d~ u
Z b b~
Z c c~
Z d d~
Z g g
Z s s~
Z u u~
b b~ g
c c~ g
d d~ g
g g g
g s s~
g u u~
A A g g
A Z g g
A g g g
G+ G- g g
G0 G0 g g
H H g g
W+ W- g g
Z Z g g
Z g g g
g g g g
