A A
A Z
G+ G-
G0 G0
H H
W+ W-
Z Z
b b~
c c~
d d~
e+ e-
g g
mu+ mu-
nu_e nu_e~
nu_mu nu_mu~
nu_tau nu_tau~
s s~
t t~
tau+ tau-
u u~
A A H
A G+ G-
A G+ W-
A G- W+
A G0 H
A H Z
A W+ W-
A b b~
A c c~
A d d~
A e+ e-
A mu+ mu-
A nu_e nu_e~
A nu_mu nu_mu~
A nu_tau nu_tau~
A s s~
A t t~
A tau+ tau-
A u u~
G+ G- H
G+ G- Z
G+ G0 W-
G+ H W-
G+ W- Z
G+ b t~
G+ c~ s
G+ d u~
G+ e- nu_e~
G+ mu- nu_mu~
G+ nu_tau~ tau-
G- G0 W+
G- H W+
G- W+ Z
G- b~ t
G- c s~
G- d~ u
G- e+ nu_e
G- mu+ nu_mu
G- nu_tau tau+
G0 G0 H
G0 H Z
G0 b b~
G0 c c~
G0 d d~
G0 e+ e-
G0 mu+ mu-
G0 s s~
G0 t t~
G0 tau+ tau-
G0 u u~
H H H
H W+ W-
H Z Z
H b b~
H c c~
H d d~
H e+ e-
H g g
H mu+ mu-
H s s~
H t t~
H tau+ tau-
H u u~
W+ W- Z
W+ b t~
W+ c~ s
W+ d u~
W+ e- nu_e~
W+ mu- nu_mu~
W+ nu_tau~ tau-
W- b~ t
W- c s~
W- d~ u
W- e+ nu_e
W- mu+ nu_mu
W- nu_tau tau+
Z b b~
Z c c~
Z d d~
Z e+ e-
Z mu+ mu-
Z nu_e nu_e~
Z nu_mu nu_mu~
Z nu_tau nu_tau~
Z s s~
Z t t~
Z tau+ tau-
Z u u~
b b~ g
c c~ g
d d~ g
g g g
g s s~
g t t~
g u u~
A A A A
A A A Z
A A G+ G-
A A G0 G0
A A H H
A A W+ W-
A A Z Z
A A g g
A G+ G- Z
A G+ G0 W-
A G+ H W-
A G- G0 W+
A G- H W+
A G0 G0 Z
A H H Z
A W+ W- Z
A Z Z Z
A Z g g
A g g g
G+ G+ G- G-
G+ G- G0 G0
G+ G- H H
G+ G- W+ W-
G+ G- Z Z
G+ G- g g
G+ G0 W- Z
G+ H W- Z
G- G0 W+ Z
G- H W+ Z
G0 G0 G0 G0
G0 G0 H H
G0 G0 W+ W-
G0 G0 Z Z
G0 G0 g g
H H H H
H H W+ W-
H H Z Z
H H g g
W+ W+ W- W-
W+ W- Z Z
W+ W- g g
Z Z Z Z
Z Z g g
Z g g g
g g g g
