A A
t t~
d d~
G0 Z
G0 g
nu_mu nu_mu~
A g
W+ W-
G- W+
Z A
H A
g g
G+ W-
e+ e-
u u~
G+ G-
H Z
G0 A
Z Z
H H
Z g
b b~
H g
mu+ mu-
nu_e nu_e~
G+ b t~
H Z Z
g g g
A mu+ mu-
G0 b b~
W+ b t~
G+ W- g
G- b~ t
Z u u~
A nu_e nu_e~
Z e+ e-
A d d~
A t t~
W+ W- g
H nu_e nu_e~
H nu_mu nu_mu~
G+ W- Z
W+ W- A
Z t t~
H b b~
G- W+ A
W+ e- nu_e~
A A g
W- b~ t
b b~ g
Z Z A
Z mu+ mu-
Z nu_mu nu_mu~
W- e+ nu_e
G- d~ u
G- W+ g
H e+ e-
A b b~
A A A
G+ mu- nu_mu~
Z A A
Z d d~
d d~ g
g t t~
H u u~
W- mu+ nu_mu
Z nu_e nu_e~
A nu_mu nu_mu~
G- mu+ nu_mu
H g g
W+ W- Z
H Z g
W+ mu- nu_mu~
H mu+ mu-
W- d~ u
Z g g
Z b b~
G+ e- nu_e~
A g g
H Z A
G- e+ nu_e
Z A g
A e+ e-
G+ W- A
H A A
Z Z g
g u u~
G0 g g
Z Z Z
A u u~
H A g
G+ d u~
G- W+ Z
H W+ W-
W+ d u~
H A b b~
A g u u~
Z A b b~
W+ A e- nu_e~
b e+ t~ nu_e
G- A e+ nu_e
Z g u u~
Z Z nu_e nu_e~
W- A d~ u
A A u u~
g g t t~
Z A nu_mu nu_mu~
Z A mu+ mu-
u u~ nu_mu nu_mu~
W+ Z d u~
W- A e+ nu_e
A A mu+ mu-
Z A u u~
Z Z u u~
W- d~ g u
W- A b~ t
H Z g g
W+ Z mu- nu_mu~
G- W+ g g
b~ e- t nu_e~
H b b~ g
H Z u u~
W+ d g u~
W+ W- Z A
G+ Z mu- nu_mu~
W+ W- A g
b b~ d d~
G+ A e- nu_e~
e+ mu- nu_e nu_mu~
W- b~ g t
W+ W- A A
b mu+ t~ nu_mu
Z A e+ e-
A A nu_mu nu_mu~
d e+ u~ nu_e
W+ A d u~
W+ A mu- nu_mu~
W+ W- u u~
W+ b g t~
G+ Z e- nu_e~
G- W+ b b~
H W- e+ nu_e
d~ e- u nu_e~
W+ W- Z Z
H g g g
G- W+ u u~
A g g g
A A nu_e nu_e~
Z Z mu+ mu-
H W+ e- nu_e~
b b~ u u~
G- A mu+ nu_mu
A A e+ e-
W+ Z e- nu_e~
H W- mu+ nu_mu
Z Z b b~
H A u u~
Z b b~ g
b~ d t u~
G+ W- b b~
W- A mu+ nu_mu
b b~ mu+ mu-
H A g g
b b~ e+ e-
W+ A b t~
A A g g
W+ W- Z g
G+ W- g g
W+ Z b t~
G+ A mu- nu_mu~
b b~ nu_mu nu_mu~
mu+ mu- u u~
G- Z mu+ nu_mu
b~ mu- t nu_mu~
W+ W- g g
W- Z b~ t
e+ e- u u~
Z g g g
W- Z mu+ nu_mu
e- mu+ nu_e~ nu_mu
Z A nu_e nu_e~
W+ W- b b~
Z Z g g
b d~ t~ u
t t~ u u~
H g u u~
H Z b b~
Z Z nu_mu nu_mu~
W- Z e+ nu_e
d mu+ u~ nu_mu
W- Z d~ u
A b b~ g
b b~ g g
G- Z e+ nu_e
H W+ mu- nu_mu~
G+ W- u u~
d~ mu- u nu_mu~
b b~ nu_e nu_e~
A A b b~
Z A g g
Z Z e+ e-
u u~ nu_e nu_e~
